-- Merging decision tree log ---
manifest
ADDED from C:\Niv\work\yours\YoursTest\YoursTest\app\src\main\AndroidManifest.xml:2:1-105:12
	xmlns:tools
		ADDED from C:\Niv\work\yours\YoursTest\YoursTest\app\src\main\AndroidManifest.xml:3:5-51
	xmlns:android
		ADDED from C:\Niv\work\yours\YoursTest\YoursTest\app\src\main\AndroidManifest.xml:2:11-69
	package
		ADDED from C:\Niv\work\yours\YoursTest\YoursTest\app\src\main\AndroidManifest.xml:4:5-41
		INJECTED from C:\Niv\work\yours\YoursTest\YoursTest\app\src\main\AndroidManifest.xml
		INJECTED from C:\Niv\work\yours\YoursTest\YoursTest\app\src\main\AndroidManifest.xml
	android:versionName
		ADDED from C:\Niv\work\yours\YoursTest\YoursTest\app\src\main\AndroidManifest.xml:6:5-32
	android:versionCode
		ADDED from C:\Niv\work\yours\YoursTest\YoursTest\app\src\main\AndroidManifest.xml:5:5-29
		INJECTED from C:\Niv\work\yours\YoursTest\YoursTest\app\src\main\AndroidManifest.xml
		INJECTED from C:\Niv\work\yours\YoursTest\YoursTest\app\src\main\AndroidManifest.xml
uses-sdk
ADDED from C:\Niv\work\yours\YoursTest\YoursTest\app\src\main\AndroidManifest.xml:8:5-10:41
MERGED from [com.android.support:support-v4:22.1.1] C:\Niv\work\yours\YoursTest\YoursTest\app\build\intermediates\exploded-aar\com.android.support\support-v4\22.1.1\AndroidManifest.xml:20:5-43
MERGED from [com.android.support:appcompat-v7:22.1.1] C:\Niv\work\yours\YoursTest\YoursTest\app\build\intermediates\exploded-aar\com.android.support\appcompat-v7\22.1.1\AndroidManifest.xml:20:5-43
MERGED from [com.android.support:support-v4:22.1.1] C:\Niv\work\yours\YoursTest\YoursTest\app\build\intermediates\exploded-aar\com.android.support\support-v4\22.1.1\AndroidManifest.xml:20:5-43
MERGED from [com.google.android.gms:play-services:7.0.0] C:\Niv\work\yours\YoursTest\YoursTest\app\build\intermediates\exploded-aar\com.google.android.gms\play-services\7.0.0\AndroidManifest.xml:18:5-42
MERGED from [com.google.android.gms:play-services-ads:7.0.0] C:\Niv\work\yours\YoursTest\YoursTest\app\build\intermediates\exploded-aar\com.google.android.gms\play-services-ads\7.0.0\AndroidManifest.xml:18:5-42
MERGED from [com.google.android.gms:play-services-base:7.0.0] C:\Niv\work\yours\YoursTest\YoursTest\app\build\intermediates\exploded-aar\com.google.android.gms\play-services-base\7.0.0\AndroidManifest.xml:18:5-42
MERGED from [com.android.support:support-v4:22.1.1] C:\Niv\work\yours\YoursTest\YoursTest\app\build\intermediates\exploded-aar\com.android.support\support-v4\22.1.1\AndroidManifest.xml:20:5-43
MERGED from [com.google.android.gms:play-services-analytics:7.0.0] C:\Niv\work\yours\YoursTest\YoursTest\app\build\intermediates\exploded-aar\com.google.android.gms\play-services-analytics\7.0.0\AndroidManifest.xml:18:5-42
MERGED from [com.google.android.gms:play-services-base:7.0.0] C:\Niv\work\yours\YoursTest\YoursTest\app\build\intermediates\exploded-aar\com.google.android.gms\play-services-base\7.0.0\AndroidManifest.xml:18:5-42
MERGED from [com.android.support:support-v4:22.1.1] C:\Niv\work\yours\YoursTest\YoursTest\app\build\intermediates\exploded-aar\com.android.support\support-v4\22.1.1\AndroidManifest.xml:20:5-43
MERGED from [com.google.android.gms:play-services-analytics:7.0.0] C:\Niv\work\yours\YoursTest\YoursTest\app\build\intermediates\exploded-aar\com.google.android.gms\play-services-analytics\7.0.0\AndroidManifest.xml:18:5-42
MERGED from [com.google.android.gms:play-services-base:7.0.0] C:\Niv\work\yours\YoursTest\YoursTest\app\build\intermediates\exploded-aar\com.google.android.gms\play-services-base\7.0.0\AndroidManifest.xml:18:5-42
MERGED from [com.android.support:support-v4:22.1.1] C:\Niv\work\yours\YoursTest\YoursTest\app\build\intermediates\exploded-aar\com.android.support\support-v4\22.1.1\AndroidManifest.xml:20:5-43
MERGED from [com.google.android.gms:play-services-appindexing:7.0.0] C:\Niv\work\yours\YoursTest\YoursTest\app\build\intermediates\exploded-aar\com.google.android.gms\play-services-appindexing\7.0.0\AndroidManifest.xml:18:5-42
MERGED from [com.google.android.gms:play-services-base:7.0.0] C:\Niv\work\yours\YoursTest\YoursTest\app\build\intermediates\exploded-aar\com.google.android.gms\play-services-base\7.0.0\AndroidManifest.xml:18:5-42
MERGED from [com.android.support:support-v4:22.1.1] C:\Niv\work\yours\YoursTest\YoursTest\app\build\intermediates\exploded-aar\com.android.support\support-v4\22.1.1\AndroidManifest.xml:20:5-43
MERGED from [com.google.android.gms:play-services-appstate:7.0.0] C:\Niv\work\yours\YoursTest\YoursTest\app\build\intermediates\exploded-aar\com.google.android.gms\play-services-appstate\7.0.0\AndroidManifest.xml:18:5-42
MERGED from [com.google.android.gms:play-services-base:7.0.0] C:\Niv\work\yours\YoursTest\YoursTest\app\build\intermediates\exploded-aar\com.google.android.gms\play-services-base\7.0.0\AndroidManifest.xml:18:5-42
MERGED from [com.android.support:support-v4:22.1.1] C:\Niv\work\yours\YoursTest\YoursTest\app\build\intermediates\exploded-aar\com.android.support\support-v4\22.1.1\AndroidManifest.xml:20:5-43
MERGED from [com.google.android.gms:play-services-base:7.0.0] C:\Niv\work\yours\YoursTest\YoursTest\app\build\intermediates\exploded-aar\com.google.android.gms\play-services-base\7.0.0\AndroidManifest.xml:18:5-42
MERGED from [com.android.support:support-v4:22.1.1] C:\Niv\work\yours\YoursTest\YoursTest\app\build\intermediates\exploded-aar\com.android.support\support-v4\22.1.1\AndroidManifest.xml:20:5-43
MERGED from [com.google.android.gms:play-services-cast:7.0.0] C:\Niv\work\yours\YoursTest\YoursTest\app\build\intermediates\exploded-aar\com.google.android.gms\play-services-cast\7.0.0\AndroidManifest.xml:18:5-42
MERGED from [com.google.android.gms:play-services-base:7.0.0] C:\Niv\work\yours\YoursTest\YoursTest\app\build\intermediates\exploded-aar\com.google.android.gms\play-services-base\7.0.0\AndroidManifest.xml:18:5-42
MERGED from [com.android.support:support-v4:22.1.1] C:\Niv\work\yours\YoursTest\YoursTest\app\build\intermediates\exploded-aar\com.android.support\support-v4\22.1.1\AndroidManifest.xml:20:5-43
MERGED from [com.google.android.gms:play-services-drive:7.0.0] C:\Niv\work\yours\YoursTest\YoursTest\app\build\intermediates\exploded-aar\com.google.android.gms\play-services-drive\7.0.0\AndroidManifest.xml:18:5-42
MERGED from [com.google.android.gms:play-services-base:7.0.0] C:\Niv\work\yours\YoursTest\YoursTest\app\build\intermediates\exploded-aar\com.google.android.gms\play-services-base\7.0.0\AndroidManifest.xml:18:5-42
MERGED from [com.android.support:support-v4:22.1.1] C:\Niv\work\yours\YoursTest\YoursTest\app\build\intermediates\exploded-aar\com.android.support\support-v4\22.1.1\AndroidManifest.xml:20:5-43
MERGED from [com.google.android.gms:play-services-fitness:7.0.0] C:\Niv\work\yours\YoursTest\YoursTest\app\build\intermediates\exploded-aar\com.google.android.gms\play-services-fitness\7.0.0\AndroidManifest.xml:18:5-42
MERGED from [com.google.android.gms:play-services-base:7.0.0] C:\Niv\work\yours\YoursTest\YoursTest\app\build\intermediates\exploded-aar\com.google.android.gms\play-services-base\7.0.0\AndroidManifest.xml:18:5-42
MERGED from [com.android.support:support-v4:22.1.1] C:\Niv\work\yours\YoursTest\YoursTest\app\build\intermediates\exploded-aar\com.android.support\support-v4\22.1.1\AndroidManifest.xml:20:5-43
MERGED from [com.google.android.gms:play-services-location:7.0.0] C:\Niv\work\yours\YoursTest\YoursTest\app\build\intermediates\exploded-aar\com.google.android.gms\play-services-location\7.0.0\AndroidManifest.xml:18:5-42
MERGED from [com.google.android.gms:play-services-base:7.0.0] C:\Niv\work\yours\YoursTest\YoursTest\app\build\intermediates\exploded-aar\com.google.android.gms\play-services-base\7.0.0\AndroidManifest.xml:18:5-42
MERGED from [com.android.support:support-v4:22.1.1] C:\Niv\work\yours\YoursTest\YoursTest\app\build\intermediates\exploded-aar\com.android.support\support-v4\22.1.1\AndroidManifest.xml:20:5-43
MERGED from [com.google.android.gms:play-services-maps:7.0.0] C:\Niv\work\yours\YoursTest\YoursTest\app\build\intermediates\exploded-aar\com.google.android.gms\play-services-maps\7.0.0\AndroidManifest.xml:18:5-42
MERGED from [com.google.android.gms:play-services-base:7.0.0] C:\Niv\work\yours\YoursTest\YoursTest\app\build\intermediates\exploded-aar\com.google.android.gms\play-services-base\7.0.0\AndroidManifest.xml:18:5-42
MERGED from [com.android.support:support-v4:22.1.1] C:\Niv\work\yours\YoursTest\YoursTest\app\build\intermediates\exploded-aar\com.android.support\support-v4\22.1.1\AndroidManifest.xml:20:5-43
MERGED from [com.google.android.gms:play-services-games:7.0.0] C:\Niv\work\yours\YoursTest\YoursTest\app\build\intermediates\exploded-aar\com.google.android.gms\play-services-games\7.0.0\AndroidManifest.xml:18:5-42
MERGED from [com.google.android.gms:play-services-base:7.0.0] C:\Niv\work\yours\YoursTest\YoursTest\app\build\intermediates\exploded-aar\com.google.android.gms\play-services-base\7.0.0\AndroidManifest.xml:18:5-42
MERGED from [com.android.support:support-v4:22.1.1] C:\Niv\work\yours\YoursTest\YoursTest\app\build\intermediates\exploded-aar\com.android.support\support-v4\22.1.1\AndroidManifest.xml:20:5-43
MERGED from [com.google.android.gms:play-services-drive:7.0.0] C:\Niv\work\yours\YoursTest\YoursTest\app\build\intermediates\exploded-aar\com.google.android.gms\play-services-drive\7.0.0\AndroidManifest.xml:18:5-42
MERGED from [com.google.android.gms:play-services-base:7.0.0] C:\Niv\work\yours\YoursTest\YoursTest\app\build\intermediates\exploded-aar\com.google.android.gms\play-services-base\7.0.0\AndroidManifest.xml:18:5-42
MERGED from [com.android.support:support-v4:22.1.1] C:\Niv\work\yours\YoursTest\YoursTest\app\build\intermediates\exploded-aar\com.android.support\support-v4\22.1.1\AndroidManifest.xml:20:5-43
MERGED from [com.google.android.gms:play-services-gcm:7.0.0] C:\Niv\work\yours\YoursTest\YoursTest\app\build\intermediates\exploded-aar\com.google.android.gms\play-services-gcm\7.0.0\AndroidManifest.xml:18:5-42
MERGED from [com.google.android.gms:play-services-base:7.0.0] C:\Niv\work\yours\YoursTest\YoursTest\app\build\intermediates\exploded-aar\com.google.android.gms\play-services-base\7.0.0\AndroidManifest.xml:18:5-42
MERGED from [com.android.support:support-v4:22.1.1] C:\Niv\work\yours\YoursTest\YoursTest\app\build\intermediates\exploded-aar\com.android.support\support-v4\22.1.1\AndroidManifest.xml:20:5-43
MERGED from [com.google.android.gms:play-services-identity:7.0.0] C:\Niv\work\yours\YoursTest\YoursTest\app\build\intermediates\exploded-aar\com.google.android.gms\play-services-identity\7.0.0\AndroidManifest.xml:18:5-42
MERGED from [com.google.android.gms:play-services-base:7.0.0] C:\Niv\work\yours\YoursTest\YoursTest\app\build\intermediates\exploded-aar\com.google.android.gms\play-services-base\7.0.0\AndroidManifest.xml:18:5-42
MERGED from [com.android.support:support-v4:22.1.1] C:\Niv\work\yours\YoursTest\YoursTest\app\build\intermediates\exploded-aar\com.android.support\support-v4\22.1.1\AndroidManifest.xml:20:5-43
MERGED from [com.google.android.gms:play-services-location:7.0.0] C:\Niv\work\yours\YoursTest\YoursTest\app\build\intermediates\exploded-aar\com.google.android.gms\play-services-location\7.0.0\AndroidManifest.xml:18:5-42
MERGED from [com.google.android.gms:play-services-base:7.0.0] C:\Niv\work\yours\YoursTest\YoursTest\app\build\intermediates\exploded-aar\com.google.android.gms\play-services-base\7.0.0\AndroidManifest.xml:18:5-42
MERGED from [com.android.support:support-v4:22.1.1] C:\Niv\work\yours\YoursTest\YoursTest\app\build\intermediates\exploded-aar\com.android.support\support-v4\22.1.1\AndroidManifest.xml:20:5-43
MERGED from [com.google.android.gms:play-services-maps:7.0.0] C:\Niv\work\yours\YoursTest\YoursTest\app\build\intermediates\exploded-aar\com.google.android.gms\play-services-maps\7.0.0\AndroidManifest.xml:18:5-42
MERGED from [com.google.android.gms:play-services-base:7.0.0] C:\Niv\work\yours\YoursTest\YoursTest\app\build\intermediates\exploded-aar\com.google.android.gms\play-services-base\7.0.0\AndroidManifest.xml:18:5-42
MERGED from [com.android.support:support-v4:22.1.1] C:\Niv\work\yours\YoursTest\YoursTest\app\build\intermediates\exploded-aar\com.android.support\support-v4\22.1.1\AndroidManifest.xml:20:5-43
MERGED from [com.google.android.gms:play-services-maps:7.0.0] C:\Niv\work\yours\YoursTest\YoursTest\app\build\intermediates\exploded-aar\com.google.android.gms\play-services-maps\7.0.0\AndroidManifest.xml:18:5-42
MERGED from [com.google.android.gms:play-services-base:7.0.0] C:\Niv\work\yours\YoursTest\YoursTest\app\build\intermediates\exploded-aar\com.google.android.gms\play-services-base\7.0.0\AndroidManifest.xml:18:5-42
MERGED from [com.android.support:support-v4:22.1.1] C:\Niv\work\yours\YoursTest\YoursTest\app\build\intermediates\exploded-aar\com.android.support\support-v4\22.1.1\AndroidManifest.xml:20:5-43
MERGED from [com.google.android.gms:play-services-nearby:7.0.0] C:\Niv\work\yours\YoursTest\YoursTest\app\build\intermediates\exploded-aar\com.google.android.gms\play-services-nearby\7.0.0\AndroidManifest.xml:18:5-42
MERGED from [com.google.android.gms:play-services-base:7.0.0] C:\Niv\work\yours\YoursTest\YoursTest\app\build\intermediates\exploded-aar\com.google.android.gms\play-services-base\7.0.0\AndroidManifest.xml:18:5-42
MERGED from [com.android.support:support-v4:22.1.1] C:\Niv\work\yours\YoursTest\YoursTest\app\build\intermediates\exploded-aar\com.android.support\support-v4\22.1.1\AndroidManifest.xml:20:5-43
MERGED from [com.google.android.gms:play-services-panorama:7.0.0] C:\Niv\work\yours\YoursTest\YoursTest\app\build\intermediates\exploded-aar\com.google.android.gms\play-services-panorama\7.0.0\AndroidManifest.xml:18:5-42
MERGED from [com.google.android.gms:play-services-base:7.0.0] C:\Niv\work\yours\YoursTest\YoursTest\app\build\intermediates\exploded-aar\com.google.android.gms\play-services-base\7.0.0\AndroidManifest.xml:18:5-42
MERGED from [com.android.support:support-v4:22.1.1] C:\Niv\work\yours\YoursTest\YoursTest\app\build\intermediates\exploded-aar\com.android.support\support-v4\22.1.1\AndroidManifest.xml:20:5-43
MERGED from [com.google.android.gms:play-services-plus:7.0.0] C:\Niv\work\yours\YoursTest\YoursTest\app\build\intermediates\exploded-aar\com.google.android.gms\play-services-plus\7.0.0\AndroidManifest.xml:18:5-42
MERGED from [com.google.android.gms:play-services-base:7.0.0] C:\Niv\work\yours\YoursTest\YoursTest\app\build\intermediates\exploded-aar\com.google.android.gms\play-services-base\7.0.0\AndroidManifest.xml:18:5-42
MERGED from [com.android.support:support-v4:22.1.1] C:\Niv\work\yours\YoursTest\YoursTest\app\build\intermediates\exploded-aar\com.android.support\support-v4\22.1.1\AndroidManifest.xml:20:5-43
MERGED from [com.google.android.gms:play-services-safetynet:7.0.0] C:\Niv\work\yours\YoursTest\YoursTest\app\build\intermediates\exploded-aar\com.google.android.gms\play-services-safetynet\7.0.0\AndroidManifest.xml:18:5-42
MERGED from [com.google.android.gms:play-services-base:7.0.0] C:\Niv\work\yours\YoursTest\YoursTest\app\build\intermediates\exploded-aar\com.google.android.gms\play-services-base\7.0.0\AndroidManifest.xml:18:5-42
MERGED from [com.android.support:support-v4:22.1.1] C:\Niv\work\yours\YoursTest\YoursTest\app\build\intermediates\exploded-aar\com.android.support\support-v4\22.1.1\AndroidManifest.xml:20:5-43
MERGED from [com.google.android.gms:play-services-wallet:7.0.0] C:\Niv\work\yours\YoursTest\YoursTest\app\build\intermediates\exploded-aar\com.google.android.gms\play-services-wallet\7.0.0\AndroidManifest.xml:18:5-42
MERGED from [com.google.android.gms:play-services-base:7.0.0] C:\Niv\work\yours\YoursTest\YoursTest\app\build\intermediates\exploded-aar\com.google.android.gms\play-services-base\7.0.0\AndroidManifest.xml:18:5-42
MERGED from [com.android.support:support-v4:22.1.1] C:\Niv\work\yours\YoursTest\YoursTest\app\build\intermediates\exploded-aar\com.android.support\support-v4\22.1.1\AndroidManifest.xml:20:5-43
MERGED from [com.google.android.gms:play-services-identity:7.0.0] C:\Niv\work\yours\YoursTest\YoursTest\app\build\intermediates\exploded-aar\com.google.android.gms\play-services-identity\7.0.0\AndroidManifest.xml:18:5-42
MERGED from [com.google.android.gms:play-services-base:7.0.0] C:\Niv\work\yours\YoursTest\YoursTest\app\build\intermediates\exploded-aar\com.google.android.gms\play-services-base\7.0.0\AndroidManifest.xml:18:5-42
MERGED from [com.android.support:support-v4:22.1.1] C:\Niv\work\yours\YoursTest\YoursTest\app\build\intermediates\exploded-aar\com.android.support\support-v4\22.1.1\AndroidManifest.xml:20:5-43
MERGED from [com.google.android.gms:play-services-maps:7.0.0] C:\Niv\work\yours\YoursTest\YoursTest\app\build\intermediates\exploded-aar\com.google.android.gms\play-services-maps\7.0.0\AndroidManifest.xml:18:5-42
MERGED from [com.google.android.gms:play-services-base:7.0.0] C:\Niv\work\yours\YoursTest\YoursTest\app\build\intermediates\exploded-aar\com.google.android.gms\play-services-base\7.0.0\AndroidManifest.xml:18:5-42
MERGED from [com.android.support:support-v4:22.1.1] C:\Niv\work\yours\YoursTest\YoursTest\app\build\intermediates\exploded-aar\com.android.support\support-v4\22.1.1\AndroidManifest.xml:20:5-43
MERGED from [com.google.android.gms:play-services-wearable:7.0.0] C:\Niv\work\yours\YoursTest\YoursTest\app\build\intermediates\exploded-aar\com.google.android.gms\play-services-wearable\7.0.0\AndroidManifest.xml:18:5-42
MERGED from [com.google.android.gms:play-services-base:7.0.0] C:\Niv\work\yours\YoursTest\YoursTest\app\build\intermediates\exploded-aar\com.google.android.gms\play-services-base\7.0.0\AndroidManifest.xml:18:5-42
MERGED from [com.android.support:support-v4:22.1.1] C:\Niv\work\yours\YoursTest\YoursTest\app\build\intermediates\exploded-aar\com.android.support\support-v4\22.1.1\AndroidManifest.xml:20:5-43
MERGED from [YoursTest:pelecardDSK:unspecified] C:\Niv\work\yours\YoursTest\YoursTest\app\build\intermediates\exploded-aar\YoursTest\pelecardDSK\unspecified\AndroidManifest.xml:7:5-9:41
MERGED from [com.android.support:support-v4:22.1.1] C:\Niv\work\yours\YoursTest\YoursTest\app\build\intermediates\exploded-aar\com.android.support\support-v4\22.1.1\AndroidManifest.xml:20:5-43
MERGED from [com.crashlytics.sdk.android:crashlytics:2.5.2] C:\Niv\work\yours\YoursTest\YoursTest\app\build\intermediates\exploded-aar\com.crashlytics.sdk.android\crashlytics\2.5.2\AndroidManifest.xml:7:5-43
MERGED from [com.crashlytics.sdk.android:answers:1.3.2] C:\Niv\work\yours\YoursTest\YoursTest\app\build\intermediates\exploded-aar\com.crashlytics.sdk.android\answers\1.3.2\AndroidManifest.xml:7:5-43
MERGED from [io.fabric.sdk.android:fabric:1.3.6] C:\Niv\work\yours\YoursTest\YoursTest\app\build\intermediates\exploded-aar\io.fabric.sdk.android\fabric\1.3.6\AndroidManifest.xml:23:5-43
MERGED from [io.fabric.sdk.android:fabric:1.3.6] C:\Niv\work\yours\YoursTest\YoursTest\app\build\intermediates\exploded-aar\io.fabric.sdk.android\fabric\1.3.6\AndroidManifest.xml:23:5-43
MERGED from [com.crashlytics.sdk.android:crashlytics-core:2.3.5] C:\Niv\work\yours\YoursTest\YoursTest\app\build\intermediates\exploded-aar\com.crashlytics.sdk.android\crashlytics-core\2.3.5\AndroidManifest.xml:7:5-43
MERGED from [com.crashlytics.sdk.android:answers:1.3.2] C:\Niv\work\yours\YoursTest\YoursTest\app\build\intermediates\exploded-aar\com.crashlytics.sdk.android\answers\1.3.2\AndroidManifest.xml:7:5-43
MERGED from [io.fabric.sdk.android:fabric:1.3.6] C:\Niv\work\yours\YoursTest\YoursTest\app\build\intermediates\exploded-aar\io.fabric.sdk.android\fabric\1.3.6\AndroidManifest.xml:23:5-43
MERGED from [io.fabric.sdk.android:fabric:1.3.6] C:\Niv\work\yours\YoursTest\YoursTest\app\build\intermediates\exploded-aar\io.fabric.sdk.android\fabric\1.3.6\AndroidManifest.xml:23:5-43
MERGED from [com.crashlytics.sdk.android:beta:1.1.3] C:\Niv\work\yours\YoursTest\YoursTest\app\build\intermediates\exploded-aar\com.crashlytics.sdk.android\beta\1.1.3\AndroidManifest.xml:7:5-43
	android:targetSdkVersion
		ADDED from C:\Niv\work\yours\YoursTest\YoursTest\app\src\main\AndroidManifest.xml:10:9-38
		INJECTED from C:\Niv\work\yours\YoursTest\YoursTest\app\src\main\AndroidManifest.xml
		INJECTED from C:\Niv\work\yours\YoursTest\YoursTest\app\src\main\AndroidManifest.xml
	android:minSdkVersion
		ADDED from C:\Niv\work\yours\YoursTest\YoursTest\app\src\main\AndroidManifest.xml:9:9-35
		INJECTED from C:\Niv\work\yours\YoursTest\YoursTest\app\src\main\AndroidManifest.xml
		INJECTED from C:\Niv\work\yours\YoursTest\YoursTest\app\src\main\AndroidManifest.xml
uses-permission#android.permission.ACCESS_FINE_LOCATION
ADDED from C:\Niv\work\yours\YoursTest\YoursTest\app\src\main\AndroidManifest.xml:12:5-79
	android:name
		ADDED from C:\Niv\work\yours\YoursTest\YoursTest\app\src\main\AndroidManifest.xml:12:22-76
uses-permission#android.permission.INTERNET
ADDED from C:\Niv\work\yours\YoursTest\YoursTest\app\src\main\AndroidManifest.xml:13:5-67
MERGED from [YoursTest:pelecardDSK:unspecified] C:\Niv\work\yours\YoursTest\YoursTest\app\build\intermediates\exploded-aar\YoursTest\pelecardDSK\unspecified\AndroidManifest.xml:12:5-67
MERGED from [com.crashlytics.sdk.android:crashlytics:2.5.2] C:\Niv\work\yours\YoursTest\YoursTest\app\build\intermediates\exploded-aar\com.crashlytics.sdk.android\crashlytics\2.5.2\AndroidManifest.xml:9:5-67
MERGED from [com.crashlytics.sdk.android:answers:1.3.2] C:\Niv\work\yours\YoursTest\YoursTest\app\build\intermediates\exploded-aar\com.crashlytics.sdk.android\answers\1.3.2\AndroidManifest.xml:9:5-67
MERGED from [io.fabric.sdk.android:fabric:1.3.6] C:\Niv\work\yours\YoursTest\YoursTest\app\build\intermediates\exploded-aar\io.fabric.sdk.android\fabric\1.3.6\AndroidManifest.xml:25:5-67
MERGED from [io.fabric.sdk.android:fabric:1.3.6] C:\Niv\work\yours\YoursTest\YoursTest\app\build\intermediates\exploded-aar\io.fabric.sdk.android\fabric\1.3.6\AndroidManifest.xml:25:5-67
MERGED from [com.crashlytics.sdk.android:crashlytics-core:2.3.5] C:\Niv\work\yours\YoursTest\YoursTest\app\build\intermediates\exploded-aar\com.crashlytics.sdk.android\crashlytics-core\2.3.5\AndroidManifest.xml:9:5-67
MERGED from [com.crashlytics.sdk.android:answers:1.3.2] C:\Niv\work\yours\YoursTest\YoursTest\app\build\intermediates\exploded-aar\com.crashlytics.sdk.android\answers\1.3.2\AndroidManifest.xml:9:5-67
MERGED from [io.fabric.sdk.android:fabric:1.3.6] C:\Niv\work\yours\YoursTest\YoursTest\app\build\intermediates\exploded-aar\io.fabric.sdk.android\fabric\1.3.6\AndroidManifest.xml:25:5-67
MERGED from [io.fabric.sdk.android:fabric:1.3.6] C:\Niv\work\yours\YoursTest\YoursTest\app\build\intermediates\exploded-aar\io.fabric.sdk.android\fabric\1.3.6\AndroidManifest.xml:25:5-67
	android:name
		ADDED from C:\Niv\work\yours\YoursTest\YoursTest\app\src\main\AndroidManifest.xml:13:22-64
uses-permission#android.permission.ACCESS_NETWORK_STATE
ADDED from C:\Niv\work\yours\YoursTest\YoursTest\app\src\main\AndroidManifest.xml:14:5-79
MERGED from [YoursTest:pelecardDSK:unspecified] C:\Niv\work\yours\YoursTest\YoursTest\app\build\intermediates\exploded-aar\YoursTest\pelecardDSK\unspecified\AndroidManifest.xml:11:5-79
	android:name
		ADDED from C:\Niv\work\yours\YoursTest\YoursTest\app\src\main\AndroidManifest.xml:14:22-76
uses-permission#android.permission.ACCESS_COARSE_LOCATION
ADDED from C:\Niv\work\yours\YoursTest\YoursTest\app\src\main\AndroidManifest.xml:15:5-81
	android:name
		ADDED from C:\Niv\work\yours\YoursTest\YoursTest\app\src\main\AndroidManifest.xml:15:22-78
uses-permission#android.permission.WRITE_EXTERNAL_STORAGE
ADDED from C:\Niv\work\yours\YoursTest\YoursTest\app\src\main\AndroidManifest.xml:16:5-81
	android:name
		ADDED from C:\Niv\work\yours\YoursTest\YoursTest\app\src\main\AndroidManifest.xml:16:22-78
uses-permission#android.permission.GET_ACCOUNTS
ADDED from C:\Niv\work\yours\YoursTest\YoursTest\app\src\main\AndroidManifest.xml:17:5-71
	android:name
		ADDED from C:\Niv\work\yours\YoursTest\YoursTest\app\src\main\AndroidManifest.xml:17:22-68
uses-permission#android.permission.WAKE_LOCK
ADDED from C:\Niv\work\yours\YoursTest\YoursTest\app\src\main\AndroidManifest.xml:18:5-68
	android:name
		ADDED from C:\Niv\work\yours\YoursTest\YoursTest\app\src\main\AndroidManifest.xml:18:22-65
application
ADDED from C:\Niv\work\yours\YoursTest\YoursTest\app\src\main\AndroidManifest.xml:27:5-103:19
MERGED from [com.android.support:support-v4:22.1.1] C:\Niv\work\yours\YoursTest\YoursTest\app\build\intermediates\exploded-aar\com.android.support\support-v4\22.1.1\AndroidManifest.xml:22:5-20
MERGED from [com.android.support:appcompat-v7:22.1.1] C:\Niv\work\yours\YoursTest\YoursTest\app\build\intermediates\exploded-aar\com.android.support\appcompat-v7\22.1.1\AndroidManifest.xml:22:5-20
MERGED from [com.android.support:support-v4:22.1.1] C:\Niv\work\yours\YoursTest\YoursTest\app\build\intermediates\exploded-aar\com.android.support\support-v4\22.1.1\AndroidManifest.xml:22:5-20
MERGED from [com.google.android.gms:play-services:7.0.0] C:\Niv\work\yours\YoursTest\YoursTest\app\build\intermediates\exploded-aar\com.google.android.gms\play-services\7.0.0\AndroidManifest.xml:19:5-20
MERGED from [com.google.android.gms:play-services-ads:7.0.0] C:\Niv\work\yours\YoursTest\YoursTest\app\build\intermediates\exploded-aar\com.google.android.gms\play-services-ads\7.0.0\AndroidManifest.xml:19:5-20
MERGED from [com.google.android.gms:play-services-base:7.0.0] C:\Niv\work\yours\YoursTest\YoursTest\app\build\intermediates\exploded-aar\com.google.android.gms\play-services-base\7.0.0\AndroidManifest.xml:20:5-24:19
MERGED from [com.android.support:support-v4:22.1.1] C:\Niv\work\yours\YoursTest\YoursTest\app\build\intermediates\exploded-aar\com.android.support\support-v4\22.1.1\AndroidManifest.xml:22:5-20
MERGED from [com.google.android.gms:play-services-analytics:7.0.0] C:\Niv\work\yours\YoursTest\YoursTest\app\build\intermediates\exploded-aar\com.google.android.gms\play-services-analytics\7.0.0\AndroidManifest.xml:19:5-20
MERGED from [com.google.android.gms:play-services-base:7.0.0] C:\Niv\work\yours\YoursTest\YoursTest\app\build\intermediates\exploded-aar\com.google.android.gms\play-services-base\7.0.0\AndroidManifest.xml:20:5-24:19
MERGED from [com.android.support:support-v4:22.1.1] C:\Niv\work\yours\YoursTest\YoursTest\app\build\intermediates\exploded-aar\com.android.support\support-v4\22.1.1\AndroidManifest.xml:22:5-20
MERGED from [com.google.android.gms:play-services-analytics:7.0.0] C:\Niv\work\yours\YoursTest\YoursTest\app\build\intermediates\exploded-aar\com.google.android.gms\play-services-analytics\7.0.0\AndroidManifest.xml:19:5-20
MERGED from [com.google.android.gms:play-services-base:7.0.0] C:\Niv\work\yours\YoursTest\YoursTest\app\build\intermediates\exploded-aar\com.google.android.gms\play-services-base\7.0.0\AndroidManifest.xml:20:5-24:19
MERGED from [com.android.support:support-v4:22.1.1] C:\Niv\work\yours\YoursTest\YoursTest\app\build\intermediates\exploded-aar\com.android.support\support-v4\22.1.1\AndroidManifest.xml:22:5-20
MERGED from [com.google.android.gms:play-services-appindexing:7.0.0] C:\Niv\work\yours\YoursTest\YoursTest\app\build\intermediates\exploded-aar\com.google.android.gms\play-services-appindexing\7.0.0\AndroidManifest.xml:19:5-20
MERGED from [com.google.android.gms:play-services-base:7.0.0] C:\Niv\work\yours\YoursTest\YoursTest\app\build\intermediates\exploded-aar\com.google.android.gms\play-services-base\7.0.0\AndroidManifest.xml:20:5-24:19
MERGED from [com.android.support:support-v4:22.1.1] C:\Niv\work\yours\YoursTest\YoursTest\app\build\intermediates\exploded-aar\com.android.support\support-v4\22.1.1\AndroidManifest.xml:22:5-20
MERGED from [com.google.android.gms:play-services-appstate:7.0.0] C:\Niv\work\yours\YoursTest\YoursTest\app\build\intermediates\exploded-aar\com.google.android.gms\play-services-appstate\7.0.0\AndroidManifest.xml:19:5-20
MERGED from [com.google.android.gms:play-services-base:7.0.0] C:\Niv\work\yours\YoursTest\YoursTest\app\build\intermediates\exploded-aar\com.google.android.gms\play-services-base\7.0.0\AndroidManifest.xml:20:5-24:19
MERGED from [com.android.support:support-v4:22.1.1] C:\Niv\work\yours\YoursTest\YoursTest\app\build\intermediates\exploded-aar\com.android.support\support-v4\22.1.1\AndroidManifest.xml:22:5-20
MERGED from [com.google.android.gms:play-services-base:7.0.0] C:\Niv\work\yours\YoursTest\YoursTest\app\build\intermediates\exploded-aar\com.google.android.gms\play-services-base\7.0.0\AndroidManifest.xml:20:5-24:19
MERGED from [com.android.support:support-v4:22.1.1] C:\Niv\work\yours\YoursTest\YoursTest\app\build\intermediates\exploded-aar\com.android.support\support-v4\22.1.1\AndroidManifest.xml:22:5-20
MERGED from [com.google.android.gms:play-services-cast:7.0.0] C:\Niv\work\yours\YoursTest\YoursTest\app\build\intermediates\exploded-aar\com.google.android.gms\play-services-cast\7.0.0\AndroidManifest.xml:19:5-20
MERGED from [com.google.android.gms:play-services-base:7.0.0] C:\Niv\work\yours\YoursTest\YoursTest\app\build\intermediates\exploded-aar\com.google.android.gms\play-services-base\7.0.0\AndroidManifest.xml:20:5-24:19
MERGED from [com.android.support:support-v4:22.1.1] C:\Niv\work\yours\YoursTest\YoursTest\app\build\intermediates\exploded-aar\com.android.support\support-v4\22.1.1\AndroidManifest.xml:22:5-20
MERGED from [com.google.android.gms:play-services-drive:7.0.0] C:\Niv\work\yours\YoursTest\YoursTest\app\build\intermediates\exploded-aar\com.google.android.gms\play-services-drive\7.0.0\AndroidManifest.xml:19:5-20
MERGED from [com.google.android.gms:play-services-base:7.0.0] C:\Niv\work\yours\YoursTest\YoursTest\app\build\intermediates\exploded-aar\com.google.android.gms\play-services-base\7.0.0\AndroidManifest.xml:20:5-24:19
MERGED from [com.android.support:support-v4:22.1.1] C:\Niv\work\yours\YoursTest\YoursTest\app\build\intermediates\exploded-aar\com.android.support\support-v4\22.1.1\AndroidManifest.xml:22:5-20
MERGED from [com.google.android.gms:play-services-fitness:7.0.0] C:\Niv\work\yours\YoursTest\YoursTest\app\build\intermediates\exploded-aar\com.google.android.gms\play-services-fitness\7.0.0\AndroidManifest.xml:19:5-20
MERGED from [com.google.android.gms:play-services-base:7.0.0] C:\Niv\work\yours\YoursTest\YoursTest\app\build\intermediates\exploded-aar\com.google.android.gms\play-services-base\7.0.0\AndroidManifest.xml:20:5-24:19
MERGED from [com.android.support:support-v4:22.1.1] C:\Niv\work\yours\YoursTest\YoursTest\app\build\intermediates\exploded-aar\com.android.support\support-v4\22.1.1\AndroidManifest.xml:22:5-20
MERGED from [com.google.android.gms:play-services-location:7.0.0] C:\Niv\work\yours\YoursTest\YoursTest\app\build\intermediates\exploded-aar\com.google.android.gms\play-services-location\7.0.0\AndroidManifest.xml:19:5-20
MERGED from [com.google.android.gms:play-services-base:7.0.0] C:\Niv\work\yours\YoursTest\YoursTest\app\build\intermediates\exploded-aar\com.google.android.gms\play-services-base\7.0.0\AndroidManifest.xml:20:5-24:19
MERGED from [com.android.support:support-v4:22.1.1] C:\Niv\work\yours\YoursTest\YoursTest\app\build\intermediates\exploded-aar\com.android.support\support-v4\22.1.1\AndroidManifest.xml:22:5-20
MERGED from [com.google.android.gms:play-services-maps:7.0.0] C:\Niv\work\yours\YoursTest\YoursTest\app\build\intermediates\exploded-aar\com.google.android.gms\play-services-maps\7.0.0\AndroidManifest.xml:19:5-20
MERGED from [com.google.android.gms:play-services-base:7.0.0] C:\Niv\work\yours\YoursTest\YoursTest\app\build\intermediates\exploded-aar\com.google.android.gms\play-services-base\7.0.0\AndroidManifest.xml:20:5-24:19
MERGED from [com.android.support:support-v4:22.1.1] C:\Niv\work\yours\YoursTest\YoursTest\app\build\intermediates\exploded-aar\com.android.support\support-v4\22.1.1\AndroidManifest.xml:22:5-20
MERGED from [com.google.android.gms:play-services-games:7.0.0] C:\Niv\work\yours\YoursTest\YoursTest\app\build\intermediates\exploded-aar\com.google.android.gms\play-services-games\7.0.0\AndroidManifest.xml:19:5-20
MERGED from [com.google.android.gms:play-services-base:7.0.0] C:\Niv\work\yours\YoursTest\YoursTest\app\build\intermediates\exploded-aar\com.google.android.gms\play-services-base\7.0.0\AndroidManifest.xml:20:5-24:19
MERGED from [com.android.support:support-v4:22.1.1] C:\Niv\work\yours\YoursTest\YoursTest\app\build\intermediates\exploded-aar\com.android.support\support-v4\22.1.1\AndroidManifest.xml:22:5-20
MERGED from [com.google.android.gms:play-services-drive:7.0.0] C:\Niv\work\yours\YoursTest\YoursTest\app\build\intermediates\exploded-aar\com.google.android.gms\play-services-drive\7.0.0\AndroidManifest.xml:19:5-20
MERGED from [com.google.android.gms:play-services-base:7.0.0] C:\Niv\work\yours\YoursTest\YoursTest\app\build\intermediates\exploded-aar\com.google.android.gms\play-services-base\7.0.0\AndroidManifest.xml:20:5-24:19
MERGED from [com.android.support:support-v4:22.1.1] C:\Niv\work\yours\YoursTest\YoursTest\app\build\intermediates\exploded-aar\com.android.support\support-v4\22.1.1\AndroidManifest.xml:22:5-20
MERGED from [com.google.android.gms:play-services-gcm:7.0.0] C:\Niv\work\yours\YoursTest\YoursTest\app\build\intermediates\exploded-aar\com.google.android.gms\play-services-gcm\7.0.0\AndroidManifest.xml:19:5-20
MERGED from [com.google.android.gms:play-services-base:7.0.0] C:\Niv\work\yours\YoursTest\YoursTest\app\build\intermediates\exploded-aar\com.google.android.gms\play-services-base\7.0.0\AndroidManifest.xml:20:5-24:19
MERGED from [com.android.support:support-v4:22.1.1] C:\Niv\work\yours\YoursTest\YoursTest\app\build\intermediates\exploded-aar\com.android.support\support-v4\22.1.1\AndroidManifest.xml:22:5-20
MERGED from [com.google.android.gms:play-services-identity:7.0.0] C:\Niv\work\yours\YoursTest\YoursTest\app\build\intermediates\exploded-aar\com.google.android.gms\play-services-identity\7.0.0\AndroidManifest.xml:19:5-20
MERGED from [com.google.android.gms:play-services-base:7.0.0] C:\Niv\work\yours\YoursTest\YoursTest\app\build\intermediates\exploded-aar\com.google.android.gms\play-services-base\7.0.0\AndroidManifest.xml:20:5-24:19
MERGED from [com.android.support:support-v4:22.1.1] C:\Niv\work\yours\YoursTest\YoursTest\app\build\intermediates\exploded-aar\com.android.support\support-v4\22.1.1\AndroidManifest.xml:22:5-20
MERGED from [com.google.android.gms:play-services-location:7.0.0] C:\Niv\work\yours\YoursTest\YoursTest\app\build\intermediates\exploded-aar\com.google.android.gms\play-services-location\7.0.0\AndroidManifest.xml:19:5-20
MERGED from [com.google.android.gms:play-services-base:7.0.0] C:\Niv\work\yours\YoursTest\YoursTest\app\build\intermediates\exploded-aar\com.google.android.gms\play-services-base\7.0.0\AndroidManifest.xml:20:5-24:19
MERGED from [com.android.support:support-v4:22.1.1] C:\Niv\work\yours\YoursTest\YoursTest\app\build\intermediates\exploded-aar\com.android.support\support-v4\22.1.1\AndroidManifest.xml:22:5-20
MERGED from [com.google.android.gms:play-services-maps:7.0.0] C:\Niv\work\yours\YoursTest\YoursTest\app\build\intermediates\exploded-aar\com.google.android.gms\play-services-maps\7.0.0\AndroidManifest.xml:19:5-20
MERGED from [com.google.android.gms:play-services-base:7.0.0] C:\Niv\work\yours\YoursTest\YoursTest\app\build\intermediates\exploded-aar\com.google.android.gms\play-services-base\7.0.0\AndroidManifest.xml:20:5-24:19
MERGED from [com.android.support:support-v4:22.1.1] C:\Niv\work\yours\YoursTest\YoursTest\app\build\intermediates\exploded-aar\com.android.support\support-v4\22.1.1\AndroidManifest.xml:22:5-20
MERGED from [com.google.android.gms:play-services-maps:7.0.0] C:\Niv\work\yours\YoursTest\YoursTest\app\build\intermediates\exploded-aar\com.google.android.gms\play-services-maps\7.0.0\AndroidManifest.xml:19:5-20
MERGED from [com.google.android.gms:play-services-base:7.0.0] C:\Niv\work\yours\YoursTest\YoursTest\app\build\intermediates\exploded-aar\com.google.android.gms\play-services-base\7.0.0\AndroidManifest.xml:20:5-24:19
MERGED from [com.android.support:support-v4:22.1.1] C:\Niv\work\yours\YoursTest\YoursTest\app\build\intermediates\exploded-aar\com.android.support\support-v4\22.1.1\AndroidManifest.xml:22:5-20
MERGED from [com.google.android.gms:play-services-nearby:7.0.0] C:\Niv\work\yours\YoursTest\YoursTest\app\build\intermediates\exploded-aar\com.google.android.gms\play-services-nearby\7.0.0\AndroidManifest.xml:19:5-20
MERGED from [com.google.android.gms:play-services-base:7.0.0] C:\Niv\work\yours\YoursTest\YoursTest\app\build\intermediates\exploded-aar\com.google.android.gms\play-services-base\7.0.0\AndroidManifest.xml:20:5-24:19
MERGED from [com.android.support:support-v4:22.1.1] C:\Niv\work\yours\YoursTest\YoursTest\app\build\intermediates\exploded-aar\com.android.support\support-v4\22.1.1\AndroidManifest.xml:22:5-20
MERGED from [com.google.android.gms:play-services-panorama:7.0.0] C:\Niv\work\yours\YoursTest\YoursTest\app\build\intermediates\exploded-aar\com.google.android.gms\play-services-panorama\7.0.0\AndroidManifest.xml:19:5-20
MERGED from [com.google.android.gms:play-services-base:7.0.0] C:\Niv\work\yours\YoursTest\YoursTest\app\build\intermediates\exploded-aar\com.google.android.gms\play-services-base\7.0.0\AndroidManifest.xml:20:5-24:19
MERGED from [com.android.support:support-v4:22.1.1] C:\Niv\work\yours\YoursTest\YoursTest\app\build\intermediates\exploded-aar\com.android.support\support-v4\22.1.1\AndroidManifest.xml:22:5-20
MERGED from [com.google.android.gms:play-services-plus:7.0.0] C:\Niv\work\yours\YoursTest\YoursTest\app\build\intermediates\exploded-aar\com.google.android.gms\play-services-plus\7.0.0\AndroidManifest.xml:19:5-20
MERGED from [com.google.android.gms:play-services-base:7.0.0] C:\Niv\work\yours\YoursTest\YoursTest\app\build\intermediates\exploded-aar\com.google.android.gms\play-services-base\7.0.0\AndroidManifest.xml:20:5-24:19
MERGED from [com.android.support:support-v4:22.1.1] C:\Niv\work\yours\YoursTest\YoursTest\app\build\intermediates\exploded-aar\com.android.support\support-v4\22.1.1\AndroidManifest.xml:22:5-20
MERGED from [com.google.android.gms:play-services-safetynet:7.0.0] C:\Niv\work\yours\YoursTest\YoursTest\app\build\intermediates\exploded-aar\com.google.android.gms\play-services-safetynet\7.0.0\AndroidManifest.xml:19:5-20
MERGED from [com.google.android.gms:play-services-base:7.0.0] C:\Niv\work\yours\YoursTest\YoursTest\app\build\intermediates\exploded-aar\com.google.android.gms\play-services-base\7.0.0\AndroidManifest.xml:20:5-24:19
MERGED from [com.android.support:support-v4:22.1.1] C:\Niv\work\yours\YoursTest\YoursTest\app\build\intermediates\exploded-aar\com.android.support\support-v4\22.1.1\AndroidManifest.xml:22:5-20
MERGED from [com.google.android.gms:play-services-wallet:7.0.0] C:\Niv\work\yours\YoursTest\YoursTest\app\build\intermediates\exploded-aar\com.google.android.gms\play-services-wallet\7.0.0\AndroidManifest.xml:19:5-20
MERGED from [com.google.android.gms:play-services-base:7.0.0] C:\Niv\work\yours\YoursTest\YoursTest\app\build\intermediates\exploded-aar\com.google.android.gms\play-services-base\7.0.0\AndroidManifest.xml:20:5-24:19
MERGED from [com.android.support:support-v4:22.1.1] C:\Niv\work\yours\YoursTest\YoursTest\app\build\intermediates\exploded-aar\com.android.support\support-v4\22.1.1\AndroidManifest.xml:22:5-20
MERGED from [com.google.android.gms:play-services-identity:7.0.0] C:\Niv\work\yours\YoursTest\YoursTest\app\build\intermediates\exploded-aar\com.google.android.gms\play-services-identity\7.0.0\AndroidManifest.xml:19:5-20
MERGED from [com.google.android.gms:play-services-base:7.0.0] C:\Niv\work\yours\YoursTest\YoursTest\app\build\intermediates\exploded-aar\com.google.android.gms\play-services-base\7.0.0\AndroidManifest.xml:20:5-24:19
MERGED from [com.android.support:support-v4:22.1.1] C:\Niv\work\yours\YoursTest\YoursTest\app\build\intermediates\exploded-aar\com.android.support\support-v4\22.1.1\AndroidManifest.xml:22:5-20
MERGED from [com.google.android.gms:play-services-maps:7.0.0] C:\Niv\work\yours\YoursTest\YoursTest\app\build\intermediates\exploded-aar\com.google.android.gms\play-services-maps\7.0.0\AndroidManifest.xml:19:5-20
MERGED from [com.google.android.gms:play-services-base:7.0.0] C:\Niv\work\yours\YoursTest\YoursTest\app\build\intermediates\exploded-aar\com.google.android.gms\play-services-base\7.0.0\AndroidManifest.xml:20:5-24:19
MERGED from [com.android.support:support-v4:22.1.1] C:\Niv\work\yours\YoursTest\YoursTest\app\build\intermediates\exploded-aar\com.android.support\support-v4\22.1.1\AndroidManifest.xml:22:5-20
MERGED from [com.google.android.gms:play-services-wearable:7.0.0] C:\Niv\work\yours\YoursTest\YoursTest\app\build\intermediates\exploded-aar\com.google.android.gms\play-services-wearable\7.0.0\AndroidManifest.xml:19:5-20
MERGED from [com.google.android.gms:play-services-base:7.0.0] C:\Niv\work\yours\YoursTest\YoursTest\app\build\intermediates\exploded-aar\com.google.android.gms\play-services-base\7.0.0\AndroidManifest.xml:20:5-24:19
MERGED from [com.android.support:support-v4:22.1.1] C:\Niv\work\yours\YoursTest\YoursTest\app\build\intermediates\exploded-aar\com.android.support\support-v4\22.1.1\AndroidManifest.xml:22:5-20
MERGED from [YoursTest:pelecardDSK:unspecified] C:\Niv\work\yours\YoursTest\YoursTest\app\build\intermediates\exploded-aar\YoursTest\pelecardDSK\unspecified\AndroidManifest.xml:14:5-22:19
MERGED from [com.android.support:support-v4:22.1.1] C:\Niv\work\yours\YoursTest\YoursTest\app\build\intermediates\exploded-aar\com.android.support\support-v4\22.1.1\AndroidManifest.xml:22:5-20
MERGED from [com.crashlytics.sdk.android:crashlytics:2.5.2] C:\Niv\work\yours\YoursTest\YoursTest\app\build\intermediates\exploded-aar\com.crashlytics.sdk.android\crashlytics\2.5.2\AndroidManifest.xml:11:5-20
MERGED from [com.crashlytics.sdk.android:answers:1.3.2] C:\Niv\work\yours\YoursTest\YoursTest\app\build\intermediates\exploded-aar\com.crashlytics.sdk.android\answers\1.3.2\AndroidManifest.xml:11:5-20
MERGED from [io.fabric.sdk.android:fabric:1.3.6] C:\Niv\work\yours\YoursTest\YoursTest\app\build\intermediates\exploded-aar\io.fabric.sdk.android\fabric\1.3.6\AndroidManifest.xml:27:5-20
MERGED from [io.fabric.sdk.android:fabric:1.3.6] C:\Niv\work\yours\YoursTest\YoursTest\app\build\intermediates\exploded-aar\io.fabric.sdk.android\fabric\1.3.6\AndroidManifest.xml:27:5-20
MERGED from [com.crashlytics.sdk.android:crashlytics-core:2.3.5] C:\Niv\work\yours\YoursTest\YoursTest\app\build\intermediates\exploded-aar\com.crashlytics.sdk.android\crashlytics-core\2.3.5\AndroidManifest.xml:11:5-20
MERGED from [com.crashlytics.sdk.android:answers:1.3.2] C:\Niv\work\yours\YoursTest\YoursTest\app\build\intermediates\exploded-aar\com.crashlytics.sdk.android\answers\1.3.2\AndroidManifest.xml:11:5-20
MERGED from [io.fabric.sdk.android:fabric:1.3.6] C:\Niv\work\yours\YoursTest\YoursTest\app\build\intermediates\exploded-aar\io.fabric.sdk.android\fabric\1.3.6\AndroidManifest.xml:27:5-20
MERGED from [io.fabric.sdk.android:fabric:1.3.6] C:\Niv\work\yours\YoursTest\YoursTest\app\build\intermediates\exploded-aar\io.fabric.sdk.android\fabric\1.3.6\AndroidManifest.xml:27:5-20
MERGED from [com.crashlytics.sdk.android:beta:1.1.3] C:\Niv\work\yours\YoursTest\YoursTest\app\build\intermediates\exploded-aar\com.crashlytics.sdk.android\beta\1.1.3\AndroidManifest.xml:9:5-20
	android:label
		ADDED from C:\Niv\work\yours\YoursTest\YoursTest\app\src\main\AndroidManifest.xml:32:9-41
	android:allowBackup
		ADDED from C:\Niv\work\yours\YoursTest\YoursTest\app\src\main\AndroidManifest.xml:29:9-35
	android:icon
		ADDED from C:\Niv\work\yours\YoursTest\YoursTest\app\src\main\AndroidManifest.xml:31:9-42
		REJECTED from [YoursTest:pelecardDSK:unspecified] C:\Niv\work\yours\YoursTest\YoursTest\app\build\intermediates\exploded-aar\YoursTest\pelecardDSK\unspecified\AndroidManifest.xml:16:9-45
	android:theme
		ADDED from C:\Niv\work\yours\YoursTest\YoursTest\app\src\main\AndroidManifest.xml:34:9-40
	android:hardwareAccelerated
		ADDED from C:\Niv\work\yours\YoursTest\YoursTest\app\src\main\AndroidManifest.xml:30:9-43
	android:largeHeap
		ADDED from C:\Niv\work\yours\YoursTest\YoursTest\app\src\main\AndroidManifest.xml:33:9-33
	tools:replace
		ADDED from C:\Niv\work\yours\YoursTest\YoursTest\app\src\main\AndroidManifest.xml:35:9-51
	android:name
		ADDED from C:\Niv\work\yours\YoursTest\YoursTest\app\src\main\AndroidManifest.xml:28:9-59
service#com.positiveapps.yoursTest.services.LocationService
ADDED from C:\Niv\work\yours\YoursTest\YoursTest\app\src\main\AndroidManifest.xml:39:9-42:19
	android:enabled
		ADDED from C:\Niv\work\yours\YoursTest\YoursTest\app\src\main\AndroidManifest.xml:41:13-35
	android:name
		ADDED from C:\Niv\work\yours\YoursTest\YoursTest\app\src\main\AndroidManifest.xml:40:13-79
meta-data#com.google.android.gms.version
ADDED from C:\Niv\work\yours\YoursTest\YoursTest\app\src\main\AndroidManifest.xml:46:9-48:69
MERGED from [com.google.android.gms:play-services-base:7.0.0] C:\Niv\work\yours\YoursTest\YoursTest\app\build\intermediates\exploded-aar\com.google.android.gms\play-services-base\7.0.0\AndroidManifest.xml:21:9-23:69
MERGED from [com.google.android.gms:play-services-base:7.0.0] C:\Niv\work\yours\YoursTest\YoursTest\app\build\intermediates\exploded-aar\com.google.android.gms\play-services-base\7.0.0\AndroidManifest.xml:21:9-23:69
MERGED from [com.google.android.gms:play-services-base:7.0.0] C:\Niv\work\yours\YoursTest\YoursTest\app\build\intermediates\exploded-aar\com.google.android.gms\play-services-base\7.0.0\AndroidManifest.xml:21:9-23:69
MERGED from [com.google.android.gms:play-services-base:7.0.0] C:\Niv\work\yours\YoursTest\YoursTest\app\build\intermediates\exploded-aar\com.google.android.gms\play-services-base\7.0.0\AndroidManifest.xml:21:9-23:69
MERGED from [com.google.android.gms:play-services-base:7.0.0] C:\Niv\work\yours\YoursTest\YoursTest\app\build\intermediates\exploded-aar\com.google.android.gms\play-services-base\7.0.0\AndroidManifest.xml:21:9-23:69
MERGED from [com.google.android.gms:play-services-base:7.0.0] C:\Niv\work\yours\YoursTest\YoursTest\app\build\intermediates\exploded-aar\com.google.android.gms\play-services-base\7.0.0\AndroidManifest.xml:21:9-23:69
MERGED from [com.google.android.gms:play-services-base:7.0.0] C:\Niv\work\yours\YoursTest\YoursTest\app\build\intermediates\exploded-aar\com.google.android.gms\play-services-base\7.0.0\AndroidManifest.xml:21:9-23:69
MERGED from [com.google.android.gms:play-services-base:7.0.0] C:\Niv\work\yours\YoursTest\YoursTest\app\build\intermediates\exploded-aar\com.google.android.gms\play-services-base\7.0.0\AndroidManifest.xml:21:9-23:69
MERGED from [com.google.android.gms:play-services-base:7.0.0] C:\Niv\work\yours\YoursTest\YoursTest\app\build\intermediates\exploded-aar\com.google.android.gms\play-services-base\7.0.0\AndroidManifest.xml:21:9-23:69
MERGED from [com.google.android.gms:play-services-base:7.0.0] C:\Niv\work\yours\YoursTest\YoursTest\app\build\intermediates\exploded-aar\com.google.android.gms\play-services-base\7.0.0\AndroidManifest.xml:21:9-23:69
MERGED from [com.google.android.gms:play-services-base:7.0.0] C:\Niv\work\yours\YoursTest\YoursTest\app\build\intermediates\exploded-aar\com.google.android.gms\play-services-base\7.0.0\AndroidManifest.xml:21:9-23:69
MERGED from [com.google.android.gms:play-services-base:7.0.0] C:\Niv\work\yours\YoursTest\YoursTest\app\build\intermediates\exploded-aar\com.google.android.gms\play-services-base\7.0.0\AndroidManifest.xml:21:9-23:69
MERGED from [com.google.android.gms:play-services-base:7.0.0] C:\Niv\work\yours\YoursTest\YoursTest\app\build\intermediates\exploded-aar\com.google.android.gms\play-services-base\7.0.0\AndroidManifest.xml:21:9-23:69
MERGED from [com.google.android.gms:play-services-base:7.0.0] C:\Niv\work\yours\YoursTest\YoursTest\app\build\intermediates\exploded-aar\com.google.android.gms\play-services-base\7.0.0\AndroidManifest.xml:21:9-23:69
MERGED from [com.google.android.gms:play-services-base:7.0.0] C:\Niv\work\yours\YoursTest\YoursTest\app\build\intermediates\exploded-aar\com.google.android.gms\play-services-base\7.0.0\AndroidManifest.xml:21:9-23:69
MERGED from [com.google.android.gms:play-services-base:7.0.0] C:\Niv\work\yours\YoursTest\YoursTest\app\build\intermediates\exploded-aar\com.google.android.gms\play-services-base\7.0.0\AndroidManifest.xml:21:9-23:69
MERGED from [com.google.android.gms:play-services-base:7.0.0] C:\Niv\work\yours\YoursTest\YoursTest\app\build\intermediates\exploded-aar\com.google.android.gms\play-services-base\7.0.0\AndroidManifest.xml:21:9-23:69
MERGED from [com.google.android.gms:play-services-base:7.0.0] C:\Niv\work\yours\YoursTest\YoursTest\app\build\intermediates\exploded-aar\com.google.android.gms\play-services-base\7.0.0\AndroidManifest.xml:21:9-23:69
MERGED from [com.google.android.gms:play-services-base:7.0.0] C:\Niv\work\yours\YoursTest\YoursTest\app\build\intermediates\exploded-aar\com.google.android.gms\play-services-base\7.0.0\AndroidManifest.xml:21:9-23:69
MERGED from [com.google.android.gms:play-services-base:7.0.0] C:\Niv\work\yours\YoursTest\YoursTest\app\build\intermediates\exploded-aar\com.google.android.gms\play-services-base\7.0.0\AndroidManifest.xml:21:9-23:69
MERGED from [com.google.android.gms:play-services-base:7.0.0] C:\Niv\work\yours\YoursTest\YoursTest\app\build\intermediates\exploded-aar\com.google.android.gms\play-services-base\7.0.0\AndroidManifest.xml:21:9-23:69
MERGED from [com.google.android.gms:play-services-base:7.0.0] C:\Niv\work\yours\YoursTest\YoursTest\app\build\intermediates\exploded-aar\com.google.android.gms\play-services-base\7.0.0\AndroidManifest.xml:21:9-23:69
MERGED from [com.google.android.gms:play-services-base:7.0.0] C:\Niv\work\yours\YoursTest\YoursTest\app\build\intermediates\exploded-aar\com.google.android.gms\play-services-base\7.0.0\AndroidManifest.xml:21:9-23:69
MERGED from [com.google.android.gms:play-services-base:7.0.0] C:\Niv\work\yours\YoursTest\YoursTest\app\build\intermediates\exploded-aar\com.google.android.gms\play-services-base\7.0.0\AndroidManifest.xml:21:9-23:69
MERGED from [com.google.android.gms:play-services-base:7.0.0] C:\Niv\work\yours\YoursTest\YoursTest\app\build\intermediates\exploded-aar\com.google.android.gms\play-services-base\7.0.0\AndroidManifest.xml:21:9-23:69
MERGED from [com.google.android.gms:play-services-base:7.0.0] C:\Niv\work\yours\YoursTest\YoursTest\app\build\intermediates\exploded-aar\com.google.android.gms\play-services-base\7.0.0\AndroidManifest.xml:21:9-23:69
	android:name
		ADDED from C:\Niv\work\yours\YoursTest\YoursTest\app\src\main\AndroidManifest.xml:47:13-58
	android:value
		ADDED from C:\Niv\work\yours\YoursTest\YoursTest\app\src\main\AndroidManifest.xml:48:13-66
receiver#com.positiveapps.yoursTest.gcm.GcmBroadcastReceiver
ADDED from C:\Niv\work\yours\YoursTest\YoursTest\app\src\main\AndroidManifest.xml:50:9-58:20
	android:permission
		ADDED from C:\Niv\work\yours\YoursTest\YoursTest\app\src\main\AndroidManifest.xml:52:13-73
	android:name
		ADDED from C:\Niv\work\yours\YoursTest\YoursTest\app\src\main\AndroidManifest.xml:51:13-79
intent-filter#com.google.android.c2dm.intent.RECEIVE+com.positiveapps.yours.gcm
ADDED from C:\Niv\work\yours\YoursTest\YoursTest\app\src\main\AndroidManifest.xml:53:13-57:29
action#com.google.android.c2dm.intent.RECEIVE
ADDED from C:\Niv\work\yours\YoursTest\YoursTest\app\src\main\AndroidManifest.xml:54:17-81
	android:name
		ADDED from C:\Niv\work\yours\YoursTest\YoursTest\app\src\main\AndroidManifest.xml:54:25-78
category#com.positiveapps.yours.gcm
ADDED from C:\Niv\work\yours\YoursTest\YoursTest\app\src\main\AndroidManifest.xml:56:17-71
	android:name
		ADDED from C:\Niv\work\yours\YoursTest\YoursTest\app\src\main\AndroidManifest.xml:56:27-68
service#com.positiveapps.yoursTest.gcm.GcmIntentService
ADDED from C:\Niv\work\yours\YoursTest\YoursTest\app\src\main\AndroidManifest.xml:60:9-83
	android:name
		ADDED from C:\Niv\work\yours\YoursTest\YoursTest\app\src\main\AndroidManifest.xml:60:18-80
activity#com.positiveapps.yoursTest.SplashActivity
ADDED from C:\Niv\work\yours\YoursTest\YoursTest\app\src\main\AndroidManifest.xml:62:9-70:20
	android:screenOrientation
		ADDED from C:\Niv\work\yours\YoursTest\YoursTest\app\src\main\AndroidManifest.xml:64:46-82
	android:label
		ADDED from C:\Niv\work\yours\YoursTest\YoursTest\app\src\main\AndroidManifest.xml:64:13-45
	android:configChanges
		ADDED from C:\Niv\work\yours\YoursTest\YoursTest\app\src\main\AndroidManifest.xml:64:83-142
	android:name
		ADDED from C:\Niv\work\yours\YoursTest\YoursTest\app\src\main\AndroidManifest.xml:63:13-69
intent-filter#android.intent.action.MAIN+android.intent.category.LAUNCHER
ADDED from C:\Niv\work\yours\YoursTest\YoursTest\app\src\main\AndroidManifest.xml:65:13-69:29
action#android.intent.action.MAIN
ADDED from C:\Niv\work\yours\YoursTest\YoursTest\app\src\main\AndroidManifest.xml:66:17-69
	android:name
		ADDED from C:\Niv\work\yours\YoursTest\YoursTest\app\src\main\AndroidManifest.xml:66:25-66
category#android.intent.category.LAUNCHER
ADDED from C:\Niv\work\yours\YoursTest\YoursTest\app\src\main\AndroidManifest.xml:68:17-77
	android:name
		ADDED from C:\Niv\work\yours\YoursTest\YoursTest\app\src\main\AndroidManifest.xml:68:27-74
activity#com.positiveapps.yoursTest.LoginActivity
ADDED from C:\Niv\work\yours\YoursTest\YoursTest\app\src\main\AndroidManifest.xml:71:9-74:20
	android:screenOrientation
		ADDED from C:\Niv\work\yours\YoursTest\YoursTest\app\src\main\AndroidManifest.xml:73:58-94
	android:label
		ADDED from C:\Niv\work\yours\YoursTest\YoursTest\app\src\main\AndroidManifest.xml:73:13-57
	android:configChanges
		ADDED from C:\Niv\work\yours\YoursTest\YoursTest\app\src\main\AndroidManifest.xml:73:95-154
	android:name
		ADDED from C:\Niv\work\yours\YoursTest\YoursTest\app\src\main\AndroidManifest.xml:72:13-68
activity#com.positiveapps.yoursTest.MainActivity
ADDED from C:\Niv\work\yours\YoursTest\YoursTest\app\src\main\AndroidManifest.xml:75:9-79:20
	android:screenOrientation
		ADDED from C:\Niv\work\yours\YoursTest\YoursTest\app\src\main\AndroidManifest.xml:78:52-88
	android:label
		ADDED from C:\Niv\work\yours\YoursTest\YoursTest\app\src\main\AndroidManifest.xml:77:13-56
	android:configChanges
		ADDED from C:\Niv\work\yours\YoursTest\YoursTest\app\src\main\AndroidManifest.xml:78:89-148
	android:theme
		ADDED from C:\Niv\work\yours\YoursTest\YoursTest\app\src\main\AndroidManifest.xml:78:13-51
	android:name
		ADDED from C:\Niv\work\yours\YoursTest\YoursTest\app\src\main\AndroidManifest.xml:76:13-67
activity#com.positiveapps.pelecardsdk.PelecardContainerActivity
ADDED from C:\Niv\work\yours\YoursTest\YoursTest\app\src\main\AndroidManifest.xml:80:9-83:20
MERGED from [YoursTest:pelecardDSK:unspecified] C:\Niv\work\yours\YoursTest\YoursTest\app\build\intermediates\exploded-aar\YoursTest\pelecardDSK\unspecified\AndroidManifest.xml:18:9-21:20
	android:screenOrientation
		ADDED from C:\Niv\work\yours\YoursTest\YoursTest\app\src\main\AndroidManifest.xml:82:46-82
	android:label
		ADDED from C:\Niv\work\yours\YoursTest\YoursTest\app\src\main\AndroidManifest.xml:82:13-45
	android:configChanges
		ADDED from C:\Niv\work\yours\YoursTest\YoursTest\app\src\main\AndroidManifest.xml:82:83-142
	android:name
		ADDED from C:\Niv\work\yours\YoursTest\YoursTest\app\src\main\AndroidManifest.xml:81:13-82
activity#com.positiveapps.yoursTest.SettingsActivity
ADDED from C:\Niv\work\yours\YoursTest\YoursTest\app\src\main\AndroidManifest.xml:84:9-87:20
	android:screenOrientation
		ADDED from C:\Niv\work\yours\YoursTest\YoursTest\app\src\main\AndroidManifest.xml:86:65-101
	android:label
		ADDED from C:\Niv\work\yours\YoursTest\YoursTest\app\src\main\AndroidManifest.xml:86:13-64
	android:configChanges
		ADDED from C:\Niv\work\yours\YoursTest\YoursTest\app\src\main\AndroidManifest.xml:86:102-161
	android:name
		ADDED from C:\Niv\work\yours\YoursTest\YoursTest\app\src\main\AndroidManifest.xml:85:13-71
meta-data#com.crashlytics.ApiKey
ADDED from C:\Niv\work\yours\YoursTest\YoursTest\app\src\main\AndroidManifest.xml:89:9-91:72
	android:name
		ADDED from C:\Niv\work\yours\YoursTest\YoursTest\app\src\main\AndroidManifest.xml:90:13-50
	android:value
		ADDED from C:\Niv\work\yours\YoursTest\YoursTest\app\src\main\AndroidManifest.xml:91:13-69
activity#com.positiveapps.yoursTest.ForgotPassActivity
ADDED from C:\Niv\work\yours\YoursTest\YoursTest\app\src\main\AndroidManifest.xml:93:9-96:20
	android:label
		ADDED from C:\Niv\work\yours\YoursTest\YoursTest\app\src\main\AndroidManifest.xml:95:13-63
	android:name
		ADDED from C:\Niv\work\yours\YoursTest\YoursTest\app\src\main\AndroidManifest.xml:94:13-73
activity#com.positiveapps.yoursTest.SumTestActivity
ADDED from C:\Niv\work\yours\YoursTest\YoursTest\app\src\main\AndroidManifest.xml:97:9-102:20
	android:label
		ADDED from C:\Niv\work\yours\YoursTest\YoursTest\app\src\main\AndroidManifest.xml:99:13-45
	android:name
		ADDED from C:\Niv\work\yours\YoursTest\YoursTest\app\src\main\AndroidManifest.xml:98:13-70
